{
  "@context": {
    "ids": "https://w3id.org/idsa/core/",
    "owl": "http://www.w3.org/2002/07/owl#",
    "rdf": "http://www.w3.org/1999/02/22-rdf-syntax-ns#",
    "rdfs": "http://www.w3.org/2000/01/rdf-schema#",
    "schema": "http://schema.org/",
    "xsd": "http://www.w3.org/2001/XMLSchema#",
    "gax-node": "http://w3id.org/gaia-x/node#",
    "gax-service": "http://w3id.org/gaia-x/service#",
    "gax-core": "http://w3id.org/gaia-x/core#" ,
    "ex": "http://example.org/"
  },
  "@id": "ex:BareMetalServiceOffering",
  "@type": "gax-service:ServiceOffering",
  "gax-service:ServiceTitle": "BMaaS",
  "gax-service:ServiceDescription": "A bare metal offering by ACME of type service offering",
  "gax-service:ProvisionType": "private",
  "gax-service:ServiceModel": "hardware",
  "gax-service:providedBy": {
    "@id": "ex:ACMEProvider",
    "@type": "gax-participant:LegalPerson"
  },
  "gax-service:WebAddress": {
    "@value": "https://www.acme.com/BMaaS" ,
    "@type": "xsd:anyURI"
  },
  "gax-node:BareMetalNode": ["gax:CPU-Node-1", "gax:CPU-Node-2", "gax:CPU-Node-3", "gax:CPU-Node-4", "gax:GPU-Node"],
  "dcat:Keyword": [
    "bare",
    "metal"
  ],
  "gax-service:termsAndConditions": {
    "@type": "gax-core:TermsAndConditions",
    "gax-core:content": {
      "@value": "https://www.acme.com/BaaS/tac.pdf",
      "@type": "xsd:anyURI"
    },
    "gax-core:hash": "ba7816bf8f01cfea414140de5dae2223b00361a396177a9cb410ff61f20015ad"
  },
  "gax-service:dataExport": {
    "@type": "gax-core:DataExport",
    "gax-core:requestType": "API",
    "gax-core:accessType": "digital",
    "gax-core:formatType": "application/json"
  }
}
