{
  "@context": {
    "ids": "https://w3id.org/idsa/core/",
    "owl": "http://www.w3.org/2002/07/owl#",
    "rdf": "http://www.w3.org/1999/02/22-rdf-syntax-ns#",
    "rdfs": "http://www.w3.org/2000/01/rdf-schema#",
    "schema": "http://schema.org/",
    "xsd": "http://www.w3.org/2001/XMLSchema#",
    "gax-node": "http://w3id.org/gaia-x/node#",
    "gax-service": "http://w3id.org/gaia-x/service#",
    "gax-resource": "http://w3id.org/gaia-x/resource#",
    "gax-core": "http://w3id.org/gaia-x/core#",
    "ex": "http://example.org/"
  },
  "@id": "ex:InfrastructureServiceOffering",
  "@type": "gax-service:ServiceOffering",
  "gax-service:providedBy": {
    "@id": "ex:ACMEProvider",
    "@type": "gax-participant:LegalPerson"
  },
  "gax-service:dependsOn": [
    {
      "@value": "ex:Compute",
      "@type":"xsd:anyURI"
    },
    {
      "@value": "ex:Storage",
      "@type":"xsd:anyURI"
    },
    {
      "@value": "ex:Networking",
      "@type":"xsd:anyURI"
    }
  ],
  "gax-resource:aggregationOf": [
    {"@id": "ex:DataCenter", "@type":"gax-resource:PhysicalResource"}
  ],
  "gax-service:termsAndConditions": {
    "@type": "gax-core:TermsAndConditions",
      "gax-core:content": {
        "@value": "https://www.acme.com/IaaS/tac.pdf",
        "@type": "xsd:anyURI"
      },
    "gax-core:hash": "ba7816bf8f01cfea414140de5dae2223b00361a396177a9cb410ff61f20015ad"
  },
  "gax-service:dataExport": {
    "@type": "gax-core:DataExport",
    "gax-core:requestType": "API",
    "gax-core:accessType": "digital",
    "gax-core:formatType": "application/json"
  }
}
