{
  "@id": "http://example.edu/verifiableCred/1",
  "type": [
    "VerifiableCredential"
  ],
  "issuer": "https://example.edu/issuers/565049",
  "issuanceDate": "2010-01-01T00:00:00Z",
  "credentialSubject": {
    "id": "http://example.edu/verifiablePresentation/1",
    "type": "gaiaxCompliance",
    "ids": [
      "http://example.edu/verifiableCred/1",
      "http://example.edu/VerifiableCred/2"
    ],
    "hash": {
      "@value": "0f5ced733003d11798006639a5200db78206e43c85aa0386d7909c3e6c8ed535",
      "@type": "xsd:string",
      "@checksumtype": "SHA-256"
    }
  },
  "proof": {
    "type": "JsonWebSignature2020",
    "created": "2022-06-12T19:38:26.853Z",
    "proofPurpose": "assertionMethod",
    "jws": "XXX",
    "verificationMethod": "did:web:compliance.lab.gaia-x.eu"
  }
}